{
  "usuarios": [
    {
      "id": 1,
      "nome": "Caruzo Jr",
      "email": "caruzojr@gmail.com"
    },
    {
      "id": 2,
      "nome": "Angelica Cristina",
      "email": "angelica@gmail.com"
    },
    {
      "id": 3,
      "nome": "Jorge Caruzo",
      "email": "jorgecaruzo@gmail.com"
    }
  ]
}
